…
No entities.
NULL
Joining, by = "doc_id"
  |                                                                              |======================================================================| 100%
No encoding supplied: defaulting to UTF-8.
# A tibble: 22 x 8
   URI   support types surfaceForm offset similarityScore percentageOfSec…
   <chr> <chr>   <chr> <chr>       <chr>  <chr>           <chr>           
 1 http… 148     Http… António Co… 0      0.999999185014… 0.0             
 2 http… 603     Wiki… PCP         72     0.990656245611… 0.0072003618272…
 3 http… 603     Wiki… PCP         434    0.990656245611… 0.0072003618272…
 4 http… 341     Wiki… Bloco de E… 442    1.0             0.0             
 5 http… 603     Wiki… PCP         833    0.990656245611… 0.0072003618272…
 6 http… 341     Wiki… Bloco de E… 845    1.0             0.0             
 7 http… 603     Wiki… PCP         1058   0.990656245611… 0.0072003618272…
 8 http… 341     Wiki… Bloco de E… 1070   1.0             0.0             
 9 http… 148     Http… António Co… 1463   0.999999185014… 0.0             
10 http… 4002    Wiki… PSD         2172   0.997819909332… 0.0021846281895…
# … with 12 more rows, and 1 more variable: doc_id <chr>
…
No entities.
NULL
Joining, by = "doc_id"
  |                                                                              |======================================================================| 100%
No encoding supplied: defaulting to UTF-8.
# A tibble: 3 x 8
  URI   support types surfaceForm offset similarityScore percentageOfSec… doc_id
  <chr> <chr>   <chr> <chr>       <chr>  <chr>           <chr>            <chr> 
1 http… 148     Http… António Co… 0      0.999999185014… 0.0              fooh  
2 http… 148     Http… António Co… 733    0.999999185014… 0.0              fooh  
3 http… 148     Http… António Co… 1405   0.999999185014… 0.0              fooh  
Joining, by = c("entity_count_Agent", "entity_count_Person", "entity_count_Politician", "doc_id")
  |                                                                              |======================================================================| 100%
No encoding supplied: defaulting to UTF-8.
# A tibble: 21 x 8
   URI   support types surfaceForm offset similarityScore percentageOfSec…
   <chr> <chr>   <chr> <chr>       <chr>  <chr>           <chr>           
 1 http… 603     Wiki… PCP         237    0.990656245611… 0.0072003618272…
 2 http… 148     Http… António Co… 370    0.999999185014… 0.0             
 3 http… 603     Wiki… PCP         693    0.990656245611… 0.0072003618272…
 4 http… 341     Wiki… Bloco de E… 701    1.0             0.0             
 5 http… 603     Wiki… PCP         1091   0.990656245611… 0.0072003618272…
 6 http… 341     Wiki… Bloco de E… 1103   1.0             0.0             
 7 http… 603     Wiki… PCP         1315   0.990656245611… 0.0072003618272…
 8 http… 341     Wiki… Bloco de E… 1327   1.0             0.0             
 9 http… 148     Http… António Co… 1744   0.999999185014… 0.0             
10 http… 4002    Wiki… PSD         2452   0.991686530581… 0.0083831057073…
# … with 11 more rows, and 1 more variable: doc_id <chr>
…
Joining, by = c("entity_count_Agent", "entity_count_Person", "entity_count_Politician", "entity_count_TelevisionShow", "entity_count_Work", "doc_id")
  |                                                                              |======================================================================| 100%
No encoding supplied: defaulting to UTF-8.
# A tibble: 5 x 8
  URI   support types surfaceForm offset similarityScore percentageOfSec… doc_id
  <chr> <chr>   <chr> <chr>       <chr>  <chr>           <chr>            <chr> 
1 http… 210     Http… Marcelo Re… 274    1.0             0.0              fooh  
2 http… 523     Http… São Bento   460    0.639351443153… 0.3945008483020… fooh  
3 http… 210     Http… Marcelo Re… 1645   1.0             0.0              fooh  
4 http… 148     Http… António Co… 2100   0.999999185014… 0.0              fooh  
5 http… 2778    Wiki… TVI         2125   1.0             0.0              fooh  
Joining, by = c("entity_count_Agent", "entity_count_Broadcaster", "entity_count_Cleric", "entity_count_Organisation", "entity_count_Person", "entity_count_Politician", "entity_count_Saint", "entity_count_TelevisionStation", "doc_id")
  |                                                                              |======================================================================| 100%
No encoding supplied: defaulting to UTF-8.
# A tibble: 22 x 8
   URI   support types surfaceForm offset similarityScore percentageOfSec…
   <chr> <chr>   <chr> <chr>       <chr>  <chr>           <chr>           
 1 http… 603     Wiki… PCP         150    0.990656245611… 0.0072003618272…
 2 http… 148     Http… António Co… 283    0.999999185014… 0.0             
 3 http… 603     Wiki… PCP         606    0.990656245611… 0.0072003618272…
 4 http… 341     Wiki… Bloco de E… 614    1.0             0.0             
 5 http… 603     Wiki… PCP         1004   0.990656245611… 0.0072003618272…
 6 http… 341     Wiki… Bloco de E… 1016   1.0             0.0             
 7 http… 603     Wiki… PCP         1228   0.990656245611… 0.0072003618272…
 8 http… 341     Wiki… Bloco de E… 1240   1.0             0.0             
 9 http… 148     Http… António Co… 1633   0.999999185014… 0.0             
10 http… 4002    Wiki… PSD         2341   0.997384250232… 0.0026224959322…
# … with 12 more rows, and 1 more variable: doc_id <chr>
…
